…
```
## Joining with `by = join_by(Genotype, parent.pop)`
```

``` r
wl2_all_2023_OLD %>% group_by(Genotype, survey_date) %>% summarize(n=n()) %>% arrange(desc(n)) 
```

```
## `summarise()` has grouped output by 'Genotype'. You can override using the
## `.groups` argument.
```

```
## # A tibble: 17,305 × 3
## # Groups:   Genotype [1,581]
##    Genotype survey_date     n
##    <chr>    <date>      <int>
##  1 CC_1_2   2023-07-26      2
##  2 CC_1_2   2023-08-02      2
##  3 CC_1_2   2023-08-16      2
##  4 CC_1_2   2023-08-23      2
##  5 CC_1_2   2023-08-30      2
##  6 CC_1_2   2023-09-06      2
##  7 CC_1_2   2023-09-13      2
##  8 CC_1_2   2023-09-20      2
##  9 CC_1_2   2023-10-13      2
## 10 CC_1_2   2023-10-20      2
## # ℹ 17,295 more rows
```

``` r
##Duplicates: CC_1_2, CC_9_6, IH_4_5, SC_5_6, SQ2_6_2
wl2_size_2023 %>% filter(Genotype=="CC_1_2") #duplicated on certain dates  
```

```
## # A tibble: 21 × 5
##    survey_date Genotype parent.pop height.cm long.leaf.cm
##    <date>      <chr>    <chr>          <dbl>        <dbl>
##  1 2023-07-03  CC_1_2   CC               2.1          1.9
##  2 2023-07-26  CC_1_2   CC               8.8          4.4
##  3 2023-07-26  CC_1_2   CC              NA           NA  
##  4 2023-08-02  CC_1_2   CC               9.4          4  
##  5 2023-08-02  CC_1_2   CC              NA           NA  
##  6 2023-08-16  CC_1_2   CC               9.3          4  
##  7 2023-08-16  CC_1_2   CC              NA           NA  
##  8 2023-08-23  CC_1_2   CC               9.9          4.3
##  9 2023-08-23  CC_1_2   CC              NA           NA  
## 10 2023-08-30  CC_1_2   CC               9.3          4  
## # ℹ 11 more rows
```
…
``` r
wl2_size_2023 %>% filter(Genotype=="IH_4_5") #duplicated on certain dates  
```

```
## # A tibble: 21 × 5
##    survey_date Genotype parent.pop height.cm long.leaf.cm
##    <date>      <chr>    <chr>          <dbl>        <dbl>
##  1 2023-07-03  IH_4_5   IH               2.8          2.7
##  2 2023-07-26  IH_4_5   IH              NA           NA  
##  3 2023-07-26  IH_4_5   IH              NA           NA  
##  4 2023-08-02  IH_4_5   IH              NA           NA  
##  5 2023-08-02  IH_4_5   IH              NA           NA  
##  6 2023-08-16  IH_4_5   IH              NA           NA  
##  7 2023-08-16  IH_4_5   IH              NA           NA  
##  8 2023-08-23  IH_4_5   IH              NA           NA  
##  9 2023-08-23  IH_4_5   IH              NA           NA  
## 10 2023-08-30  IH_4_5   IH              NA           NA  
## # ℹ 11 more rows
```
…
