…
simpop_timeprep %>% #look at data for a few indivs to see if above worked
  drop_na(surv) %>% 
  select(Indiv_ID, week, weeks, germinated, established, y1surv, size, size_next, surv, death.week) %>% 
  filter(Indiv_ID<25)
```

```
## # A tibble: 84 × 10
##    Indiv_ID  week weeks germinated established y1surv  size size_next  surv
##       <dbl> <dbl> <dbl>      <dbl>       <dbl>  <dbl> <dbl>     <dbl> <dbl>
##  1        3     1     0          1           0     NA  4.37        NA     1
##  2        3     2     1          1           0     NA NA           NA     0
##  3        3     3     2          1           0     NA NA           NA     0
##  4        3     4     3          1           0     NA NA           NA     0
##  5        3     5     4          1           0     NA NA           NA     0
##  6        3     6     5          1           0     NA NA           NA     0
##  7        3     7     6          1           0     NA NA           NA     0
##  8        3     8     7          1           0     NA NA           NA     0
##  9        3     9     8          1           0     NA NA           NA     0
## 10        3    10     9          1           0     NA NA           NA     0
## # ℹ 74 more rows
## # ℹ 1 more variable: death.week <dbl>
```
…
