…
```
## # A tibble: 12,000 × 22
## # Groups:   Indiv_ID [1,000]
##    germination.logit establishment.logit y1surv.logit alpha  beta     k delta
##                <dbl>               <dbl>        <dbl> <dbl> <dbl> <dbl> <dbl>
##  1            -0.632               0.700       -0.218  35.3  6.58    NA    NA
##  2            -0.632               0.700       -0.218  35.3  6.58    NA    NA
##  3            -0.632               0.700       -0.218  35.3  6.58    NA    NA
##  4            -0.632               0.700       -0.218  35.3  6.58    NA    NA
##  5            -0.632               0.700       -0.218  35.3  6.58    NA    NA
##  6            -0.632               0.700       -0.218  35.3  6.58    NA    NA
##  7            -0.632               0.700       -0.218  35.3  6.58    NA    NA
##  8            -0.632               0.700       -0.218  35.3  6.58    NA    NA
##  9            -0.632               0.700       -0.218  35.3  6.58    NA    NA
## 10            -0.632               0.700       -0.218  35.3  6.58    NA    NA
## # ℹ 11,990 more rows
## # ℹ 15 more variables: flowering.logit <dbl>, fruitPerPlant <dbl>,
## #   germination.prob <dbl>, establishment.prob <dbl>, y1surv.prob <dbl>,
## #   flowering.prob <dbl>, germinated <int>, established <int>, y1surv <int>,
## #   flowered <int>, Indiv_ID <int>, week <int>, week_next <int>,
## #   elapsed_days <int>, size <dbl>
```
